…
```{r}
library(ggimg)
library(ggplot2)
library(dplyr)

posters <- mutate(posters,
  path = file.path(system.file("extdata", package="ggimg"), img)
)
posters
```
```
# A tibble: 50 x 12
    year title img   rating_count  gross genre rating runtime stars metacritic
   <dbl> <chr> <chr>        <dbl>  <dbl> <chr> <chr>    <dbl> <dbl>      <dbl>
 1  2018 Incr… 2018…       226170 6.09e8 Anim… PG         118   7.6         NA
 2  2019 The … 2019…       168828 5.40e8 Anim… PG         118   6.9         55
 3  2016 Find… 2016…       224980 4.86e8 Anim… PG          97   7.3         NA
 4  2004 Shre… 2004…       398797 4.36e8 Anim… PG          93   7.2         NA
 5  2019 Toy … 2019…       159927 4.33e8 Anim… G          100   7.8         NA
 6  2010 Toy … 2010…       719003 4.15e8 Anim… G          103   8.3         NA
 7  2013 Froz… 2013…       545450 4.01e8 Anim… PG         102   7.5         NA
 8  2003 Find… 2003…       903078 3.81e8 Anim… G          100   8.1         NA
 9  2016 The … 2016…       173603 3.68e8 Anim… PG          87   6.5         NA
10  2013 Desp… 2013…       355343 3.68e8 Anim… PG          98   7.3         NA
# … with 40 more rows, and 2 more variables: description <chr>, path <chr>
```
…
